…
Veri setinin satırlarının (gözlemlerin) sıralanmasında  `dplyr::arrange()` fonksiyonu kullanılabilir. 

Örnek: Yılı artan, ülkeleri alfabetik olacak şekilde satırları yeniden düzenle: 

```r
arrange(gapminder, year, country) 
```

```
## # A tibble: 1,704 x 6
##    country     continent  year lifeExp      pop gdpPercap
##    <fct>       <fct>     <int>   <dbl>    <int>     <dbl>
##  1 Afghanistan Asia       1952    28.8  8425333      779.
##  2 Albania     Europe     1952    55.2  1282697     1601.
##  3 Algeria     Africa     1952    43.1  9279525     2449.
##  4 Angola      Africa     1952    30.0  4232095     3521.
##  5 Argentina   Americas   1952    62.5 17876956     5911.
##  6 Australia   Oceania    1952    69.1  8691212    10040.
##  7 Austria     Europe     1952    66.8  6927772     6137.
##  8 Bahrain     Asia       1952    50.9   120447     9867.
##  9 Bangladesh  Asia       1952    37.5 46886859      684.
## 10 Belgium     Europe     1952    68    8730405     8343.
## # ... with 1,694 more rows
```

Ülkeler alfabetik, yıl artan:  

```r
arrange(gapminder, country, year) 
```

```
## # A tibble: 1,704 x 6
##    country     continent  year lifeExp      pop gdpPercap
##    <fct>       <fct>     <int>   <dbl>    <int>     <dbl>
##  1 Afghanistan Asia       1952    28.8  8425333      779.
##  2 Afghanistan Asia       1957    30.3  9240934      821.
##  3 Afghanistan Asia       1962    32.0 10267083      853.
##  4 Afghanistan Asia       1967    34.0 11537966      836.
##  5 Afghanistan Asia       1972    36.1 13079460      740.
##  6 Afghanistan Asia       1977    38.4 14880372      786.
##  7 Afghanistan Asia       1982    39.9 12881816      978.
##  8 Afghanistan Asia       1987    40.8 13867957      852.
##  9 Afghanistan Asia       1992    41.7 16317921      649.
## 10 Afghanistan Asia       1997    41.8 22227415      635.
## # ... with 1,694 more rows
```
…
`filter()` ve `arrange()` birlikte kullanılabilir. Örneğin: 

```r
gapminder %>% 
  filter(year==2007, continent=="Americas") %>% 
  arrange(lifeExp) 
```

```
## # A tibble: 25 x 6
##    country             continent  year lifeExp       pop gdpPercap
##    <fct>               <fct>     <int>   <dbl>     <int>     <dbl>
##  1 Haiti               Americas   2007    60.9   8502814     1202.
##  2 Bolivia             Americas   2007    65.6   9119152     3822.
##  3 Trinidad and Tobago Americas   2007    69.8   1056608    18009.
##  4 Honduras            Americas   2007    70.2   7483763     3548.
##  5 Guatemala           Americas   2007    70.3  12572928     5186.
##  6 Peru                Americas   2007    71.4  28674757     7409.
##  7 Paraguay            Americas   2007    71.8   6667147     4173.
##  8 El Salvador         Americas   2007    71.9   6939688     5728.
##  9 Dominican Republic  Americas   2007    72.2   9319622     6025.
## 10 Brazil              Americas   2007    72.4 190010647     9066.
## # ... with 15 more rows
```

Örenk: 2007 yılında Avrupa kıtasındaki ülkelerde yaşam beklentisinin büyükten küçüğe sıralanması

```r
gapminder %>% 
  filter(year==2007, continent=="Europe") %>% 
  arrange(desc(lifeExp)) 
```

```
## # A tibble: 30 x 6
##    country     continent  year lifeExp      pop gdpPercap
##    <fct>       <fct>     <int>   <dbl>    <int>     <dbl>
##  1 Iceland     Europe     2007    81.8   301931    36181.
##  2 Switzerland Europe     2007    81.7  7554661    37506.
##  3 Spain       Europe     2007    80.9 40448191    28821.
##  4 Sweden      Europe     2007    80.9  9031088    33860.
##  5 France      Europe     2007    80.7 61083916    30470.
##  6 Italy       Europe     2007    80.5 58147733    28570.
##  7 Norway      Europe     2007    80.2  4627926    49357.
##  8 Austria     Europe     2007    79.8  8199783    36126.
##  9 Netherlands Europe     2007    79.8 16570613    36798.
## 10 Greece      Europe     2007    79.5 10706290    27538.
## # ... with 20 more rows
```

## `group_by()`

Verilerin gruplandırılması amacıyla kullanılır. Verilerin görünümünü değiştirmez. `summarize()` gibi diğer fonksiyonlarla birlikte kullanılabilir.

```r
gapminder %>%  
  group_by(continent, year)  
```

```
## # A tibble: 1,704 x 6
## # Groups:   continent, year [60]
##    country     continent  year lifeExp      pop gdpPercap
##    <fct>       <fct>     <int>   <dbl>    <int>     <dbl>
##  1 Afghanistan Asia       1952    28.8  8425333      779.
##  2 Afghanistan Asia       1957    30.3  9240934      821.
##  3 Afghanistan Asia       1962    32.0 10267083      853.
##  4 Afghanistan Asia       1967    34.0 11537966      836.
##  5 Afghanistan Asia       1972    36.1 13079460      740.
##  6 Afghanistan Asia       1977    38.4 14880372      786.
##  7 Afghanistan Asia       1982    39.9 12881816      978.
##  8 Afghanistan Asia       1987    40.8 13867957      852.
##  9 Afghanistan Asia       1992    41.7 16317921      649.
## 10 Afghanistan Asia       1997    41.8 22227415      635.
## # ... with 1,694 more rows
```
…
**Örnek**:  `mutate()` ve `group_by()` fonksiyonlarının birlikte kullanımı: Her ülke için kişi başına GDP değişkeninin başlangıç yılındaki değerine oranını gösteren yeni bir değişken oluşturunuz. Yeni değişken başlangıç yılı olan 1952'de 1 değerini almalı, diğer yıllar için başlangıç yılına göre 1+büyüme oranı.   

```r
gapminder %>%  
  group_by(country) %>%
  select(country, year, gdpPercap) %>% 
  mutate(gdppc_to_first = gdpPercap/first(gdpPercap))
```

```
## # A tibble: 1,704 x 4
## # Groups:   country [142]
##    country      year gdpPercap gdppc_to_first
##    <fct>       <int>     <dbl>          <dbl>
##  1 Afghanistan  1952      779.          1    
##  2 Afghanistan  1957      821.          1.05 
##  3 Afghanistan  1962      853.          1.09 
##  4 Afghanistan  1967      836.          1.07 
##  5 Afghanistan  1972      740.          0.949
##  6 Afghanistan  1977      786.          1.01 
##  7 Afghanistan  1982      978.          1.25 
##  8 Afghanistan  1987      852.          1.09 
##  9 Afghanistan  1992      649.          0.833
## 10 Afghanistan  1997      635.          0.815
## # ... with 1,694 more rows
```


**Örnek**: Yıldan yıla büyüme oranlarını yüzde olarak gösteren yeni bir değişken oluşturunuz.

```r
gapminder %>%  
  group_by(country) %>%
  select(country, year, gdpPercap) %>% 
  mutate(gdppc_growth = 100*(gdpPercap-lag(gdpPercap))/lag(gdpPercap))
```

```
## # A tibble: 1,704 x 4
## # Groups:   country [142]
##    country      year gdpPercap gdppc_growth
##    <fct>       <int>     <dbl>        <dbl>
##  1 Afghanistan  1952      779.        NA   
##  2 Afghanistan  1957      821.         5.31
##  3 Afghanistan  1962      853.         3.93
##  4 Afghanistan  1967      836.        -1.98
##  5 Afghanistan  1972      740.       -11.5 
##  6 Afghanistan  1977      786.         6.23
##  7 Afghanistan  1982      978.        24.4 
##  8 Afghanistan  1987      852.       -12.8 
##  9 Afghanistan  1992      649.       -23.8 
## 10 Afghanistan  1997      635.        -2.16
## # ... with 1,694 more rows
```

Örnekte kullanılan `lag()` fonksiyonu bir önceki dönemdeki (yılda) değere eşit olan birinci gecikmedir. Gecikmeyi açıkça veri setine ekleyelim: 


```r
gapminder %>%  
  group_by(country) %>%
  select(country, year, gdpPercap) %>% 
  mutate(lag_gdppc = lag(gdpPercap, 1, order_by = year), 
         gdppc_growth = 100*(gdpPercap-lag_gdppc)/lag_gdppc)
```

```
## # A tibble: 1,704 x 5
## # Groups:   country [142]
##    country      year gdpPercap lag_gdppc gdppc_growth
##    <fct>       <int>     <dbl>     <dbl>        <dbl>
##  1 Afghanistan  1952      779.       NA         NA   
##  2 Afghanistan  1957      821.      779.         5.31
##  3 Afghanistan  1962      853.      821.         3.93
##  4 Afghanistan  1967      836.      853.        -1.98
##  5 Afghanistan  1972      740.      836.       -11.5 
##  6 Afghanistan  1977      786.      740.         6.23
##  7 Afghanistan  1982      978.      786.        24.4 
##  8 Afghanistan  1987      852.      978.       -12.8 
##  9 Afghanistan  1992      649.      852.       -23.8 
## 10 Afghanistan  1997      635.      649.        -2.16
## # ... with 1,694 more rows
```



Yukarıda **pipe** operatörünü kullandık. Bunu kullanmadan aynı kodu çalıştırmak istersek:  

```r
mutate(select(group_by(gapminder,country), country, year, gdpPercap), gdppc_growth = 100*(gdpPercap-lag(gdpPercap))/lag(gdpPercap))
```

```
## # A tibble: 1,704 x 4
## # Groups:   country [142]
##    country      year gdpPercap gdppc_growth
##    <fct>       <int>     <dbl>        <dbl>
##  1 Afghanistan  1952      779.        NA   
##  2 Afghanistan  1957      821.         5.31
##  3 Afghanistan  1962      853.         3.93
##  4 Afghanistan  1967      836.        -1.98
##  5 Afghanistan  1972      740.       -11.5 
##  6 Afghanistan  1977      786.         6.23
##  7 Afghanistan  1982      978.        24.4 
##  8 Afghanistan  1987      852.       -12.8 
##  9 Afghanistan  1992      649.       -23.8 
## 10 Afghanistan  1997      635.        -2.16
## # ... with 1,694 more rows
```
…
Daha sonra `min_rank()` ile yaşam beklentisini küçükten büyüğe doğru sıralayalım ve yeni bir değişken yaratarak sıralamaları kaydedelim. En düşük yaşam beklentisine sahip ilk iki ülkeyi listeleyelim:  

```r
europe %>% 
  group_by(year) %>% 
  mutate(le_rank = min_rank(lifeExp)) %>% 
  filter(le_rank < 3) %>% 
  arrange(year)
```

```
## # A tibble: 24 x 4
## # Groups:   year [12]
##     year country                lifeExp le_rank
##    <int> <fct>                    <dbl>   <int>
##  1  1952 Bosnia and Herzegovina    53.8       2
##  2  1952 Turkey                    43.6       1
##  3  1957 Bosnia and Herzegovina    58.4       2
##  4  1957 Turkey                    48.1       1
##  5  1962 Bosnia and Herzegovina    61.9       2
##  6  1962 Turkey                    52.1       1
##  7  1967 Bosnia and Herzegovina    64.8       2
##  8  1967 Turkey                    54.3       1
##  9  1972 Bosnia and Herzegovina    67.4       2
## 10  1972 Turkey                    57.0       1
## # ... with 14 more rows
```

Aynısını en yüksek yaşam beklentisi için yapalım: 

```r
europe %>% group_by(year) %>% 
  mutate(le_desc_rank = min_rank(desc(lifeExp))) %>% 
  filter(le_desc_rank < 3) %>% 
  arrange(year)
```

```
## # A tibble: 24 x 4
## # Groups:   year [12]
##     year country lifeExp le_desc_rank
##    <int> <fct>     <dbl>        <int>
##  1  1952 Iceland    72.5            2
##  2  1952 Norway     72.7            1
##  3  1957 Iceland    73.5            1
##  4  1957 Norway     73.4            2
##  5  1962 Iceland    73.7            1
##  6  1962 Norway     73.5            2
##  7  1967 Norway     74.1            2
##  8  1967 Sweden     74.2            1
##  9  1972 Iceland    74.5            2
## 10  1972 Sweden     74.7            1
## # ... with 14 more rows
```
…
##    province plaka variable       y2005     y2010     y2015
##    <chr>    <dbl> <chr>          <dbl>     <dbl>     <dbl>
##  1 Istanbul    34 GDPpc         16749     26253     49773 
##  2 Istanbul    34 RGDPpc        13986     14384     18602.
##  3 Istanbul    34 GDPpc_USD     12428     17480     18343 
##  4 Istanbul    34 population 12000000  13100000  14500000 
##  5 Izmir       35 GDPpc         12011     18308     34261 
##  6 Izmir       35 RGDPpc         9922.    10211.    12927.
##  7 Izmir       35 GDPpc_USD      8912     12190     12626 
##  8 Izmir       35 population  3626321   3908672   4140726 
##  9 Ankara       6 GDPpc         15392     23997     40679 
## 10 Ankara       6 RGDPpc        12910.    13019.    15029.
## 11 Ankara       6 GDPpc_USD     11420     15978     14992 
## 12 Ankara       6 population  4252588   4711187   5210297 
## # A tibble: 36 x 5
##    province plaka variable   year     values
##    <chr>    <dbl> <chr>      <chr>     <dbl>
##  1 Istanbul    34 GDPpc      2005     16749 
##  2 Istanbul    34 GDPpc      2010     26253 
##  3 Istanbul    34 GDPpc      2015     49773 
##  4 Istanbul    34 RGDPpc     2005     13986 
##  5 Istanbul    34 RGDPpc     2010     14384 
##  6 Istanbul    34 RGDPpc     2015     18602.
##  7 Istanbul    34 GDPpc_USD  2005     12428 
##  8 Istanbul    34 GDPpc_USD  2010     17480 
##  9 Istanbul    34 GDPpc_USD  2015     18343 
## 10 Istanbul    34 population 2005  12000000 
## # ... with 26 more rows
```
…
